{
    "statusCode": 200,
    "headers": {
        "Date": "Tue, 25 Jun 2024 12:03:52 GMT",
        "Content-Type": "application\/json",
        "Content-Length": "7154",
        "Connection": "keep-alive",
        "Set-Cookie": [
            "AWSALB=h387WIEy38HglQYZTrp6s3iDfei29XN38FyDHbn724J9jQDn1a3hMU\/LD5ekP+qww2uf7xmBpBRXv6claeBTiCT4r7fttfdR\/V8chKPmXssanv6M3+sl0Q3dWuTX; Expires=Tue, 02 Jul 2024 12:03:52 GMT; Path=\/",
            "AWSALBCORS=h387WIEy38HglQYZTrp6s3iDfei29XN38FyDHbn724J9jQDn1a3hMU\/LD5ekP+qww2uf7xmBpBRXv6claeBTiCT4r7fttfdR\/V8chKPmXssanv6M3+sl0Q3dWuTX; Expires=Tue, 02 Jul 2024 12:03:52 GMT; Path=\/; SameSite=None; Secure"
        ],
        "X-RateLimit-Remaining-Minute": "59",
        "X-RateLimit-Limit-Minute": "60",
        "X-RateLimit-Remaining-Day": "499",
        "X-RateLimit-Limit-Day": "500",
        "RateLimit-Reset": "8",
        "RateLimit-Remaining": "59",
        "RateLimit-Limit": "60",
        "Access-Control-Allow-Credentials": "true",
        "Access-Control-Allow-Origin": "*",
        "Cache-Control": "max-age=0",
        "Server": "Concierge",
        "X-Kong-Upstream-Latency": "25",
        "X-Kong-Proxy-Latency": "4",
        "Via": "kong\/3.1.1"
    },
    "data": "{\"response\":{\"status\":\"ok\",\"userTier\":\"developer\",\"total\":12581,\"startIndex\":1,\"pageSize\":10,\"currentPage\":1,\"pages\":1259,\"orderBy\":\"relevance\",\"results\":[{\"id\":\"australia-news\/article\/2024\/jun\/23\/reports-of-young-men-with-weapons-at-westfield-shopping-centre-in-adelaide-sparks-lockdown\",\"type\":\"article\",\"sectionId\":\"australia-news\",\"sectionName\":\"Australia news\",\"webPublicationDate\":\"2024-06-23T21:45:07Z\",\"webTitle\":\"Reports of young men with weapons at Westfield shopping centre in Adelaide sparks lockdown\",\"webUrl\":\"https:\/\/www.theguardian.com\/australia-news\/article\/2024\/jun\/23\/reports-of-young-men-with-weapons-at-westfield-shopping-centre-in-adelaide-sparks-lockdown\",\"apiUrl\":\"https:\/\/content.guardianapis.com\/australia-news\/article\/2024\/jun\/23\/reports-of-young-men-with-weapons-at-westfield-shopping-centre-in-adelaide-sparks-lockdown\",\"isHosted\":false,\"pillarId\":\"pillar\/news\",\"pillarName\":\"News\"},{\"id\":\"sport\/2024\/apr\/15\/adelaide-crows-conquer-melbourne-hoodoo-to-salvage-their-campaign-and-kickstart-the-future\",\"type\":\"article\",\"sectionId\":\"sport\",\"sectionName\":\"Sport\",\"webPublicationDate\":\"2024-04-14T15:00:57Z\",\"webTitle\":\"Adelaide Crows conquer Melbourne hoodoo to salvage their campaign and kickstart the future | Jonathan Horn\",\"webUrl\":\"https:\/\/www.theguardian.com\/sport\/2024\/apr\/15\/adelaide-crows-conquer-melbourne-hoodoo-to-salvage-their-campaign-and-kickstart-the-future\",\"apiUrl\":\"https:\/\/content.guardianapis.com\/sport\/2024\/apr\/15\/adelaide-crows-conquer-melbourne-hoodoo-to-salvage-their-campaign-and-kickstart-the-future\",\"isHosted\":false,\"pillarId\":\"pillar\/sport\",\"pillarName\":\"Sport\"},{\"id\":\"culture\/2024\/mar\/01\/adelaide-festival-2024-opening-night-baleen-moondjan\",\"type\":\"article\",\"sectionId\":\"culture\",\"sectionName\":\"Culture\",\"webPublicationDate\":\"2024-03-01T01:32:28Z\",\"webTitle\":\"Adelaide festival 2024: giant whalebones pierce the sunset for \u2018transformative\u2019 opening night\",\"webUrl\":\"https:\/\/www.theguardian.com\/culture\/2024\/mar\/01\/adelaide-festival-2024-opening-night-baleen-moondjan\",\"apiUrl\":\"https:\/\/content.guardianapis.com\/culture\/2024\/mar\/01\/adelaide-festival-2024-opening-night-baleen-moondjan\",\"isHosted\":false,\"pillarId\":\"pillar\/arts\",\"pillarName\":\"Arts\"},{\"id\":\"australia-news\/article\/2024\/jun\/04\/oral-history-how-tick-begg-revolutionised-braces-and-made-1920s-adelaide-the-orthodontic-centre-of-the-world\",\"type\":\"article\",\"sectionId\":\"australia-news\",\"sectionName\":\"Australia news\",\"webPublicationDate\":\"2024-06-03T15:00:47Z\",\"webTitle\":\"Oral history: how Tick Begg revolutionised braces and made 1920s Adelaide \u2018the orthodontic centre of the world\u2019\",\"webUrl\":\"https:\/\/www.theguardian.com\/australia-news\/article\/2024\/jun\/04\/oral-history-how-tick-begg-revolutionised-braces-and-made-1920s-adelaide-the-orthodontic-centre-of-the-world\",\"apiUrl\":\"https:\/\/content.guardianapis.com\/australia-news\/article\/2024\/jun\/04\/oral-history-how-tick-begg-revolutionised-braces-and-made-1920s-adelaide-the-orthodontic-centre-of-the-world\",\"isHosted\":false,\"pillarId\":\"pillar\/news\",\"pillarName\":\"News\"},{\"id\":\"society\/2024\/jan\/30\/australian-border-force-seizes-13-tonnes-vapes-adelaide-import-ban\",\"type\":\"article\",\"sectionId\":\"society\",\"sectionName\":\"Society\",\"webPublicationDate\":\"2024-01-30T05:07:11Z\",\"webTitle\":\"Australian Border Force seizes 13 tonnes of disposable vapes in Adelaide\",\"webUrl\":\"https:\/\/www.theguardian.com\/society\/2024\/jan\/30\/australian-border-force-seizes-13-tonnes-vapes-adelaide-import-ban\",\"apiUrl\":\"https:\/\/content.guardianapis.com\/society\/2024\/jan\/30\/australian-border-force-seizes-13-tonnes-vapes-adelaide-import-ban\",\"isHosted\":false,\"pillarId\":\"pillar\/news\",\"pillarName\":\"News\"},{\"id\":\"artanddesign\/2024\/mar\/01\/adelaide-biennale-2024-light-takes-centre-stage-in-tender-survey-of-australian-art\",\"type\":\"article\",\"sectionId\":\"artanddesign\",\"sectionName\":\"Art and design\",\"webPublicationDate\":\"2024-02-29T14:00:18Z\",\"webTitle\":\"Adelaide Biennale 2024: light takes centre stage in \u2018tender\u2019 survey of Australian art \",\"webUrl\":\"https:\/\/www.theguardian.com\/artanddesign\/2024\/mar\/01\/adelaide-biennale-2024-light-takes-centre-stage-in-tender-survey-of-australian-art\",\"apiUrl\":\"https:\/\/content.guardianapis.com\/artanddesign\/2024\/mar\/01\/adelaide-biennale-2024-light-takes-centre-stage-in-tender-survey-of-australian-art\",\"isHosted\":false,\"pillarId\":\"pillar\/arts\",\"pillarName\":\"Arts\"},{\"id\":\"australia-news\/2024\/mar\/23\/uk-defence-secretary-given-a-ride-from-canberra-to-adelaide-in-australian-military-fighter-jet\",\"type\":\"article\",\"sectionId\":\"australia-news\",\"sectionName\":\"Australia news\",\"webPublicationDate\":\"2024-03-23T04:31:18Z\",\"webTitle\":\"UK defence secretary given a ride from Canberra to Adelaide in Australian military fighter jet\",\"webUrl\":\"https:\/\/www.theguardian.com\/australia-news\/2024\/mar\/23\/uk-defence-secretary-given-a-ride-from-canberra-to-adelaide-in-australian-military-fighter-jet\",\"apiUrl\":\"https:\/\/content.guardianapis.com\/australia-news\/2024\/mar\/23\/uk-defence-secretary-given-a-ride-from-canberra-to-adelaide-in-australian-military-fighter-jet\",\"isHosted\":false,\"pillarId\":\"pillar\/news\",\"pillarName\":\"News\"},{\"id\":\"australia-news\/2024\/jan\/05\/adelaide-hospital-tackles-sexist-and-humiliating-behaviour-of-surgeons-with-eye-posters\",\"type\":\"article\",\"sectionId\":\"australia-news\",\"sectionName\":\"Australia news\",\"webPublicationDate\":\"2024-01-04T14:00:06Z\",\"webTitle\":\"Adelaide hospital tackles \u2018sexist\u2019 and \u2018humiliating\u2019 behaviour of surgeons with eye posters\",\"webUrl\":\"https:\/\/www.theguardian.com\/australia-news\/2024\/jan\/05\/adelaide-hospital-tackles-sexist-and-humiliating-behaviour-of-surgeons-with-eye-posters\",\"apiUrl\":\"https:\/\/content.guardianapis.com\/australia-news\/2024\/jan\/05\/adelaide-hospital-tackles-sexist-and-humiliating-behaviour-of-surgeons-with-eye-posters\",\"isHosted\":false,\"pillarId\":\"pillar\/news\",\"pillarName\":\"News\"},{\"id\":\"australia-news\/2024\/jan\/04\/man-dies-after-waiting-more-than-10-hours-for-ambulance-in-adelaide\",\"type\":\"article\",\"sectionId\":\"australia-news\",\"sectionName\":\"Australia news\",\"webPublicationDate\":\"2024-01-04T07:49:31Z\",\"webTitle\":\"Man dies after waiting more than 10 hours for ambulance in Adelaide\",\"webUrl\":\"https:\/\/www.theguardian.com\/australia-news\/2024\/jan\/04\/man-dies-after-waiting-more-than-10-hours-for-ambulance-in-adelaide\",\"apiUrl\":\"https:\/\/content.guardianapis.com\/australia-news\/2024\/jan\/04\/man-dies-after-waiting-more-than-10-hours-for-ambulance-in-adelaide\",\"isHosted\":false,\"pillarId\":\"pillar\/news\",\"pillarName\":\"News\"},{\"id\":\"environment\/2024\/jan\/29\/the-megabats-of-adelaide-sa-adjusts-to-new-and-growing-colonies-of-flying-foxes\",\"type\":\"article\",\"sectionId\":\"environment\",\"sectionName\":\"Environment\",\"webPublicationDate\":\"2024-01-28T14:00:10Z\",\"webTitle\":\"The megabats of Adelaide: SA adjusts to new and growing colonies of flying foxes\",\"webUrl\":\"https:\/\/www.theguardian.com\/environment\/2024\/jan\/29\/the-megabats-of-adelaide-sa-adjusts-to-new-and-growing-colonies-of-flying-foxes\",\"apiUrl\":\"https:\/\/content.guardianapis.com\/environment\/2024\/jan\/29\/the-megabats-of-adelaide-sa-adjusts-to-new-and-growing-colonies-of-flying-foxes\",\"isHosted\":false,\"pillarId\":\"pillar\/news\",\"pillarName\":\"News\"}]}}"
}