{
    "statusCode": 200,
    "headers": {
        "Date": "Tue, 25 Jun 2024 12:03:51 GMT",
        "Content-Type": "application\/json",
        "Content-Length": "6904",
        "Connection": "keep-alive",
        "Set-Cookie": [
            "AWSALB=ws7UHwDyD\/j1bhjIrnowC0DoZJvGjYp+Ggk2iOfI2xqyGnjsmke4kZYKgGM3R\/RbfRj2je5oDUsA3spxk9bf08OcG41AjVjMxCO5SY7aWqnlLIOuvKXzEiHBBXvC; Expires=Tue, 02 Jul 2024 12:03:51 GMT; Path=\/",
            "AWSALBCORS=ws7UHwDyD\/j1bhjIrnowC0DoZJvGjYp+Ggk2iOfI2xqyGnjsmke4kZYKgGM3R\/RbfRj2je5oDUsA3spxk9bf08OcG41AjVjMxCO5SY7aWqnlLIOuvKXzEiHBBXvC; Expires=Tue, 02 Jul 2024 12:03:51 GMT; Path=\/; SameSite=None; Secure"
        ],
        "RateLimit-Reset": "9",
        "RateLimit-Remaining": "59",
        "RateLimit-Limit": "60",
        "X-RateLimit-Remaining-Minute": "59",
        "X-RateLimit-Limit-Minute": "60",
        "X-RateLimit-Remaining-Day": "498",
        "X-RateLimit-Limit-Day": "500",
        "Access-Control-Allow-Credentials": "true",
        "Access-Control-Allow-Origin": "*",
        "Cache-Control": "max-age=0",
        "Server": "Concierge",
        "X-Kong-Upstream-Latency": "73",
        "X-Kong-Proxy-Latency": "1",
        "Via": "kong\/3.1.1"
    },
    "data": "{\"response\":{\"status\":\"ok\",\"userTier\":\"developer\",\"total\":2509535,\"startIndex\":1,\"pageSize\":10,\"currentPage\":1,\"pages\":250954,\"orderBy\":\"newest\",\"results\":[{\"id\":\"football\/live\/2024\/jun\/25\/euro-2024-modric-reacts-italy-croatia-anguish-england-through-before-slovenia-match-live-news\",\"type\":\"liveblog\",\"sectionId\":\"football\",\"sectionName\":\"Football\",\"webPublicationDate\":\"2024-06-25T12:01:04Z\",\"webTitle\":\"Euro 2024: England v Slovenia buildup, Croatia reaction,and more \u2013 live news\",\"webUrl\":\"https:\/\/www.theguardian.com\/football\/live\/2024\/jun\/25\/euro-2024-modric-reacts-italy-croatia-anguish-england-through-before-slovenia-match-live-news\",\"apiUrl\":\"https:\/\/content.guardianapis.com\/football\/live\/2024\/jun\/25\/euro-2024-modric-reacts-italy-croatia-anguish-england-through-before-slovenia-match-live-news\",\"isHosted\":false,\"pillarId\":\"pillar\/sport\",\"pillarName\":\"Sport\"},{\"id\":\"technology\/article\/2024\/jun\/25\/injured-amazon-warehouse-workers-gofundme\",\"type\":\"article\",\"sectionId\":\"technology\",\"sectionName\":\"Technology\",\"webPublicationDate\":\"2024-06-25T12:00:26Z\",\"webTitle\":\"\u2018It\u2019s been hell\u2019: injured Amazon workers turn to GoFundMe to pay bills\",\"webUrl\":\"https:\/\/www.theguardian.com\/technology\/article\/2024\/jun\/25\/injured-amazon-warehouse-workers-gofundme\",\"apiUrl\":\"https:\/\/content.guardianapis.com\/technology\/article\/2024\/jun\/25\/injured-amazon-warehouse-workers-gofundme\",\"isHosted\":false,\"pillarId\":\"pillar\/news\",\"pillarName\":\"News\"},{\"id\":\"environment\/article\/2024\/jun\/25\/south-sudan-antelope-migration-worlds-largest-aoe\",\"type\":\"article\",\"sectionId\":\"environment\",\"sectionName\":\"Environment\",\"webPublicationDate\":\"2024-06-25T12:00:26Z\",\"webTitle\":\"Migration of 6m antelope in South Sudan dwarfs previous records for world\u2019s biggest, aerial study reveals\",\"webUrl\":\"https:\/\/www.theguardian.com\/environment\/article\/2024\/jun\/25\/south-sudan-antelope-migration-worlds-largest-aoe\",\"apiUrl\":\"https:\/\/content.guardianapis.com\/environment\/article\/2024\/jun\/25\/south-sudan-antelope-migration-worlds-largest-aoe\",\"isHosted\":false,\"pillarId\":\"pillar\/news\",\"pillarName\":\"News\"},{\"id\":\"film\/article\/2024\/jun\/25\/bye-bye-tiberias-review-hiam-abbass-lina-soualem\",\"type\":\"article\",\"sectionId\":\"film\",\"sectionName\":\"Film\",\"webPublicationDate\":\"2024-06-25T12:00:25Z\",\"webTitle\":\"Bye Bye Tiberias review \u2013 heartfelt memoir of Palestinian family reunion in Galilee\",\"webUrl\":\"https:\/\/www.theguardian.com\/film\/article\/2024\/jun\/25\/bye-bye-tiberias-review-hiam-abbass-lina-soualem\",\"apiUrl\":\"https:\/\/content.guardianapis.com\/film\/article\/2024\/jun\/25\/bye-bye-tiberias-review-hiam-abbass-lina-soualem\",\"isHosted\":false,\"pillarId\":\"pillar\/arts\",\"pillarName\":\"Arts\"},{\"id\":\"environment\/article\/2024\/jun\/25\/served-up-from-the-sea-10-of-the-best-sustainable-eateries-on-the-british-coast\",\"type\":\"article\",\"sectionId\":\"environment\",\"sectionName\":\"Environment\",\"webPublicationDate\":\"2024-06-25T12:00:25Z\",\"webTitle\":\"Served up from the sea: 10 of the best sustainable eateries on the British coast\",\"webUrl\":\"https:\/\/www.theguardian.com\/environment\/article\/2024\/jun\/25\/served-up-from-the-sea-10-of-the-best-sustainable-eateries-on-the-british-coast\",\"apiUrl\":\"https:\/\/content.guardianapis.com\/environment\/article\/2024\/jun\/25\/served-up-from-the-sea-10-of-the-best-sustainable-eateries-on-the-british-coast\",\"isHosted\":false,\"pillarId\":\"pillar\/news\",\"pillarName\":\"News\"},{\"id\":\"world\/live\/2024\/jun\/25\/russia-ukraine-war-live-kremlin-reacts-to-ukraine-peace-plan-reportedly-presented-to-donald-trump\",\"type\":\"liveblog\",\"sectionId\":\"world\",\"sectionName\":\"World news\",\"webPublicationDate\":\"2024-06-25T12:00:03Z\",\"webTitle\":\"Russia-Ukraine war live: international court issues warrants for Russian officials over attacks on Ukrainian civilian targets\",\"webUrl\":\"https:\/\/www.theguardian.com\/world\/live\/2024\/jun\/25\/russia-ukraine-war-live-kremlin-reacts-to-ukraine-peace-plan-reportedly-presented-to-donald-trump\",\"apiUrl\":\"https:\/\/content.guardianapis.com\/world\/live\/2024\/jun\/25\/russia-ukraine-war-live-kremlin-reacts-to-ukraine-peace-plan-reportedly-presented-to-donald-trump\",\"isHosted\":false,\"pillarId\":\"pillar\/news\",\"pillarName\":\"News\"},{\"id\":\"film\/article\/2024\/jun\/25\/sean-penn-says-timid-and-artless-policy-toward-the-human-imagination-means-he-can-no-longer-play-gay-roles\",\"type\":\"article\",\"sectionId\":\"film\",\"sectionName\":\"Film\",\"webPublicationDate\":\"2024-06-25T11:57:37Z\",\"webTitle\":\"Sean Penn says \u2018timid and artless policy toward the human imagination\u2019 means he can no longer play gay roles\",\"webUrl\":\"https:\/\/www.theguardian.com\/film\/article\/2024\/jun\/25\/sean-penn-says-timid-and-artless-policy-toward-the-human-imagination-means-he-can-no-longer-play-gay-roles\",\"apiUrl\":\"https:\/\/content.guardianapis.com\/film\/article\/2024\/jun\/25\/sean-penn-says-timid-and-artless-policy-toward-the-human-imagination-means-he-can-no-longer-play-gay-roles\",\"isHosted\":false,\"pillarId\":\"pillar\/arts\",\"pillarName\":\"Arts\"},{\"id\":\"business\/live\/2024\/jun\/25\/nvidia-selloff-correction-territory-500bn-ai-chip-losses-business-live\",\"type\":\"liveblog\",\"sectionId\":\"business\",\"sectionName\":\"Business\",\"webPublicationDate\":\"2024-06-25T11:56:55Z\",\"webTitle\":\"Nvidia shares on track to open higher after $500bn sell-off; Microsoft hit with EU antitrust charge over Teams app \u2013 business live\",\"webUrl\":\"https:\/\/www.theguardian.com\/business\/live\/2024\/jun\/25\/nvidia-selloff-correction-territory-500bn-ai-chip-losses-business-live\",\"apiUrl\":\"https:\/\/content.guardianapis.com\/business\/live\/2024\/jun\/25\/nvidia-selloff-correction-territory-500bn-ai-chip-losses-business-live\",\"isHosted\":false,\"pillarId\":\"pillar\/news\",\"pillarName\":\"News\"},{\"id\":\"sport\/live\/2024\/jun\/25\/worcestershire-v-surrey-essex-v-durham-county-cricket-live\",\"type\":\"liveblog\",\"sectionId\":\"sport\",\"sectionName\":\"Sport\",\"webPublicationDate\":\"2024-06-25T11:53:30Z\",\"webTitle\":\"Worcestershire v Surrey, Essex v Durham: county cricket \u2013 live\",\"webUrl\":\"https:\/\/www.theguardian.com\/sport\/live\/2024\/jun\/25\/worcestershire-v-surrey-essex-v-durham-county-cricket-live\",\"apiUrl\":\"https:\/\/content.guardianapis.com\/sport\/live\/2024\/jun\/25\/worcestershire-v-surrey-essex-v-durham-county-cricket-live\",\"isHosted\":false,\"pillarId\":\"pillar\/sport\",\"pillarName\":\"Sport\"},{\"id\":\"politics\/live\/2024\/jun\/25\/uk-general-election-live-updates-latest-today-tories-labour-betting-scandal-polls\",\"type\":\"liveblog\",\"sectionId\":\"politics\",\"sectionName\":\"Politics\",\"webPublicationDate\":\"2024-06-25T11:49:26Z\",\"webTitle\":\"UK general election live: Tory party withdraws support from two candidates accused of suspect election date bets\",\"webUrl\":\"https:\/\/www.theguardian.com\/politics\/live\/2024\/jun\/25\/uk-general-election-live-updates-latest-today-tories-labour-betting-scandal-polls\",\"apiUrl\":\"https:\/\/content.guardianapis.com\/politics\/live\/2024\/jun\/25\/uk-general-election-live-updates-latest-today-tories-labour-betting-scandal-polls\",\"isHosted\":false,\"pillarId\":\"pillar\/news\",\"pillarName\":\"News\"}]}}"
}